{
    "Third": {
        "image_info": ["london-shop.jpg", "London Guidebook"],
        "category": "Components.Secondary.Guides.Features.Third.category",
        "title": "Components.Secondary.Guides.Features.Third.title"
    },
    "Second": {
        "image_info": ["new-york-shop.jpg", "New York Guidebook"],
        "category": "Components.Secondary.Guides.Features.Second.category",
        "title": "Components.Secondary.Guides.Features.Second.title"
    },
    "First": {
        "image_info": ["paris-shop.jpg", "Paris Guidebook"],
        "category": "Components.Secondary.Guides.Features.First.category",
        "title": "Components.Secondary.Guides.Features.First.title"
    }
}