{
    "Fourth": {
        "type": "landscape",
        "image_info": ["playlist/spring-2020.jpg", "Spring Playlist"],
        "category": ["Components.Secondary.Playlist.Content.Fourth.category.1"],
        "content": ["Components.Secondary.Playlist.Content.Fourth.content.title","Components.Secondary.Playlist.Content.Fourth.content.desc"]
    },
    "Third": {
        "type": "landscape",
        "image_info": ["playlist/winter-2019.jpg", "Winter Playlist"],
        "category": ["Components.Secondary.Playlist.Content.Third.category.1"],
        "content": ["Components.Secondary.Playlist.Content.Third.content.title","Components.Secondary.Playlist.Content.Third.content.desc"]
    },
    "Second": {
        "type": "landscape",
        "image_info": ["playlist/autumn-2019.jpg", "Autumn Playlist"],
        "category": ["Components.Secondary.Playlist.Content.Second.category.1"],
        "content": ["Components.Secondary.Playlist.Content.Second.content.title","Components.Secondary.Playlist.Content.Second.content.desc"]
    },
    "First": {
        "type": "landscape",
        "image_info": ["playlist/winter-2018.jpg", "Winter Playlist"],
        "category": ["Components.Secondary.Playlist.Content.First.category.1"],
        "content": ["Components.Secondary.Playlist.Content.First.content.title","Components.Secondary.Playlist.Content.First.content.desc"]
    }
}