{
    "Sixth": {
        "image_info": ["volume20.jpg", "Cereal Volume 20"],
        "title": "Components.Secondary.Shop.Products.Sixth.title",
        "production_year": "Components.Secondary.Shop.Products.Sixth.production-year",
        "availability": "Components.Secondary.Shop.Products.Sixth.availability"
    },
    "Fifth": {
        "image_info": ["volume19-limited.jpg", "Cereal Volume 19 - Limited Edition"],
        "title": "Components.Secondary.Shop.Products.Fifth.title",
        "production_year": "Components.Secondary.Shop.Products.Fifth.production-year",
        "availability": "Components.Secondary.Shop.Products.Fifth.availability"
    },
    "Fourth": {
        "image_info": ["volume19.jpg", "Cereal Volume 19"],
        "title": "Components.Secondary.Shop.Products.Fourth.title",
        "production_year": "Components.Secondary.Shop.Products.Fourth.production-year",
        "availability": "Components.Secondary.Shop.Products.Fourth.availability"
    },
    "Third": {
        "image_info": ["volume18.jpg", "Cereal Volume 18"],
        "title": "Components.Secondary.Shop.Products.Third.title",
        "production_year": "Components.Secondary.Shop.Products.Third.production-year",
        "availability": "Components.Secondary.Shop.Products.Third.availability"
    },
    "Second": {
        "image_info": ["volume17.jpg", "Cereal Volume 17"],
        "title": "Components.Secondary.Shop.Products.Second.title",
        "production_year": "Components.Secondary.Shop.Products.Second.production-year",
        "availability": "Components.Secondary.Shop.Products.Second.availability"
    },
    "First": {
        "image_info": ["volume16.jpg", "Cereal Volume 16"],
        "title": "Components.Secondary.Shop.Products.First.title",
        "production_year": "Components.Secondary.Shop.Products.First.production-year",
        "availability": "Components.Secondary.Shop.Products.First.availability"
    }
}