{
    "First": {
        "image_info": ["cereal_volume_21.jpg", "Cereal Volume 21"],
        "title": "Components.Secondary.Home.Products.Features.First.title",
        "production_year": "Components.Secondary.Home.Products.Features.First.production-year",
        "availability": "Components.Secondary.Home.Products.Features.First.availability"
    },

    "Secondary": {
        "image_info": ["cereal_volume_20.jpg", "Cereal Volume 20"],
        "title": "Components.Secondary.Home.Products.Features.Secondary.title",
        "production_year": "Components.Secondary.Home.Products.Features.Secondary.production-year",
        "availability": "Components.Secondary.Home.Products.Features.Secondary.availability"
    },

    "Third": {
        "image_info": ["cereal_volume_19.jpg", "Cereal Volume 19"],
        "title": "Components.Secondary.Home.Products.Features.Third.title",
        "production_year": "Components.Secondary.Home.Products.Features.Third.production-year",
        "availability": "Components.Secondary.Home.Products.Features.Third.availability"
    }
}